<svg width="18" height="13" viewBox="0 0 18 13" fill="none" xmlns="http://www.w3.org/2000/svg">
<path d="M17.9866 1.29035C17.9866 1.26978 18.0008 1.24976 17.9998 1.22943L12.5068 6.52221L17.9933 11.6459C17.9965 11.6093 17.9866 11.5724 17.9866 11.535V1.29035Z" fill="#BC0022"/>
<path d="M11.6688 7.33673L9.42636 9.4942C9.31289 9.60337 9.16634 9.65811 9.01971 9.65811C8.87613 9.65811 8.73255 9.60572 8.61985 9.50069L6.38356 7.41681L0.861328 12.7396C0.995603 12.7879 1.13973 12.8253 1.29066 12.8253H16.7488C16.973 12.8253 17.1832 12.7571 17.3659 12.6552L11.6688 7.33673Z" fill="#BC0022"/>
<path d="M9.01309 8.26387L17.3961 0.188547C17.2063 0.0757004 16.9854 0 16.7486 0H1.29046C0.982103 0 0.699556 0.119729 0.479492 0.302333L9.01309 8.26387Z" fill="#BC0022"/>
<path d="M0 1.48703V11.5349C0 11.6502 0.0265108 11.7614 0.0552896 11.8677L5.50902 6.6159L0 1.48703Z" fill="#BC0022"/>
</svg>
