<svg width="42" height="50" viewBox="0 0 42 50" fill="none" xmlns="http://www.w3.org/2000/svg">
<path d="M11.3751 22.2757C13.6647 27.3286 18.5668 29.5281 20.9999 29.5281C22.5997 29.5281 25.267 28.5765 27.5572 26.4888C26.7198 26.5472 25.8248 26.5768 24.8684 26.5768C24.6439 26.5768 24.4085 26.5748 24.1569 26.5709C23.6748 26.9421 23.0775 27.1515 22.4578 27.1515H20.42C18.8843 27.1515 17.635 25.9022 17.635 24.3665C17.635 22.8308 18.8843 21.5815 20.42 21.5815H22.4578C23.194 21.5815 23.8825 21.8684 24.3932 22.3633C24.5628 22.3652 24.7301 22.366 24.8942 22.366C27.5249 22.366 29.2585 22.1247 30.3926 21.8337C30.2455 21.4758 30.1653 21.0841 30.1653 20.6752V13.6139C30.1653 12.8793 30.438 12.1752 30.9094 11.6312C30.6578 9.67287 30.2012 8.17779 29.5198 7.07493C28.1156 4.80222 25.4083 3.74377 20.9999 3.74377C17.3429 3.74377 14.8175 4.50293 13.2796 6.06458C12.0875 7.27517 11.3967 9.00256 11.0737 11.6114C11.5557 12.1574 11.8345 12.8687 11.8345 13.6139V20.6752C11.8347 21.2627 11.6658 21.8111 11.3751 22.2757Z" fill="#BC0022"/>
<path d="M6.36496 22.3422H8.80953C9.7298 22.3422 10.4765 21.5958 10.4765 20.6751V13.6138C10.4765 12.9987 10.1424 12.4627 9.6468 12.1739C10.1927 6.39182 12.4239 2.38506 21.0004 2.38506C25.9256 2.38506 29.0001 3.64851 30.676 6.36084C31.6511 7.9392 32.1202 9.97783 32.3394 12.1826C31.8517 12.4735 31.5243 13.0047 31.5243 13.6137V20.675C31.5243 21.4688 32.0796 22.1316 32.8226 22.2997C31.745 23.0045 29.514 23.7244 24.8946 23.7244C24.5204 23.7244 24.1304 23.7196 23.7242 23.7099C23.4864 23.2527 23.0093 22.9398 22.4583 22.9398H20.4206C19.6329 22.9398 18.9941 23.5785 18.9941 24.3663C18.9941 25.1541 19.6329 25.7928 20.4206 25.7928H22.4583C22.9343 25.7928 23.3549 25.5587 23.6139 25.2005C24.0429 25.2113 24.4629 25.2181 24.8689 25.2181C30.0759 25.218 33.386 24.3292 34.7266 22.5658C34.7837 22.4908 34.8357 22.4161 34.8831 22.3422H35.6362C36.5566 22.3422 37.3031 21.5958 37.3031 20.6751V13.6138C37.3031 12.6933 36.5567 11.9469 35.6362 11.9469H34.7167C34.458 9.28307 33.8846 7.01539 32.7051 5.1069C30.582 1.67047 26.753 0 21.0003 0C15.2471 0 11.4186 1.67047 9.29534 5.10704C8.11599 7.01552 7.54282 9.28293 7.28402 11.947H6.36482C5.44414 11.947 4.69775 12.6933 4.69775 13.614V20.6753C4.69775 21.5958 5.44427 22.3422 6.36496 22.3422Z" fill="#BC0022"/>
<path d="M41.154 43.1065C40.5998 39.6602 39.4587 35.2211 37.1703 33.6438C35.6098 32.5677 30.1621 29.657 27.8358 28.4142L27.7869 28.3881C27.5206 28.2459 27.1958 28.2744 26.9585 28.4607C25.7381 29.4186 24.4021 30.0639 22.9877 30.3787C22.7378 30.4342 22.5325 30.6121 22.4416 30.8514L21.0003 34.6501L19.559 30.8514C19.4681 30.6119 19.2629 30.4342 19.0129 30.3787C17.5985 30.0639 16.2623 29.4186 15.0417 28.4607C14.8045 28.2743 14.4796 28.2458 14.2134 28.3881C11.9131 29.6171 6.39487 32.5889 4.83689 33.6392C2.20145 35.4147 1.05049 41.8372 0.846575 43.1066C0.826333 43.2325 0.838016 43.3613 0.880538 43.4814C0.974821 43.7477 3.39222 50.0001 21.0002 50.0001C38.6079 50.0001 41.0255 43.7477 41.1199 43.4816C41.1626 43.3612 41.1743 43.2323 41.154 43.1065ZM32.9555 39.149H25.9816V37.6803H32.9555V39.149Z" fill="#BC0022"/>
</svg>
