<svg width="48" height="48" viewBox="0 0 48 48" fill="none" xmlns="http://www.w3.org/2000/svg">
<path d="M9.42845 39V34.6406L1.21191 42.8572H5.57129C7.70063 42.8548 9.4262 41.1292 9.42845 39Z" fill="#BC0022"/>
<path d="M14.5715 39V31.2856C14.575 28.2101 17.0674 25.7177 20.1429 25.7142H25.7144V22.2856H0V25.7142H5.57147C8.64703 25.7177 11.1394 28.2101 11.1429 31.2856V39C11.1394 42.0755 8.64703 44.5679 5.57147 44.5714H0V48H25.7143V44.5714H20.1428C17.0673 44.5679 14.575 42.0755 14.5715 39Z" fill="#BC0022"/>
<path d="M46.7879 0H21.7834L1.21191 20.5715H26.2164L46.7879 0Z" fill="#BC0022"/>
<path d="M27.4287 21.7834V24.5022L36.6799 15.2511L48.0002 3.93076V1.21191L27.4287 21.7834Z" fill="#BC0022"/>
<path d="M27.4287 44.0573V46.7144L43.093 30.2666L48.0002 25.3596V22.6406L44.3205 26.3204L27.4287 44.0573Z" fill="#BC0022"/>
<path d="M46.788 21.4286H42.4286C42.3556 21.4237 42.2835 21.4092 42.2143 21.3853C42.1451 21.4092 42.073 21.4238 42 21.4286C39.6091 21.4246 37.4865 19.8973 36.7232 17.6316L27.1776 27.1772C27.0166 27.3376 26.7987 27.4279 26.5713 27.4286H20.1428C18.0136 27.4309 16.288 29.1565 16.2856 31.2857V39C16.288 41.1293 18.0136 42.8548 20.1428 42.8572H26.2039L43.0932 25.1233L46.788 21.4286ZM20.3229 39.9941C20.0776 40.2413 19.7072 40.3156 19.3856 40.1821C19.0639 40.0486 18.8551 39.7337 18.8571 39.3855C18.8571 38.9122 19.2408 38.5284 19.7143 38.5284C20.1876 38.5284 20.5714 38.9121 20.5714 39.3855C20.5738 39.6134 20.4841 39.8328 20.3229 39.9941ZM23.7632 36.3876L22.9061 37.2857C22.5793 37.6283 22.0366 37.641 21.694 37.3142C21.3514 36.9874 21.3387 36.4447 21.6655 36.1021L22.5226 35.204C22.7341 34.9824 23.0476 34.8904 23.3453 34.9628C23.643 35.0351 23.8794 35.2607 23.9656 35.5546C24.0518 35.8484 23.9746 36.166 23.7632 36.3876ZM27.1918 32.7957L26.3346 33.6939C26.0078 34.0364 25.4651 34.0492 25.1225 33.7224C24.78 33.3956 24.7672 32.8528 25.094 32.5103L25.9512 31.6122C26.278 31.2696 26.8207 31.2568 27.1633 31.5837C27.5058 31.9106 27.5186 32.4532 27.1918 32.7957ZM30.6203 29.204L29.7631 30.1021C29.4363 30.4447 28.8936 30.4574 28.5511 30.1306C28.2085 29.8038 28.1957 29.2611 28.5226 28.9185L29.3797 28.0204C29.7065 27.6778 30.2492 27.6651 30.5918 27.9919C30.9345 28.3188 30.9472 28.8614 30.6203 29.204ZM34.0489 25.6122L33.1918 26.5103C32.9804 26.7319 32.6668 26.8239 32.3691 26.7515C32.0715 26.6792 31.835 26.4536 31.7489 26.1597C31.6627 25.8657 31.7399 25.5482 31.9513 25.3266L32.8084 24.4285C33.1352 24.0859 33.678 24.0732 34.0205 24.4C34.363 24.727 34.3757 25.2696 34.0489 25.6122ZM36.6086 22.9286C36.4487 23.0929 36.2293 23.1855 36.0001 23.1855C35.7708 23.1855 35.5514 23.0928 35.3915 22.9286C35.229 22.7716 35.139 22.5543 35.143 22.3284C35.1409 21.9802 35.3498 21.6653 35.6715 21.5318C35.9931 21.3983 36.3635 21.4725 36.6088 21.7198C36.7666 21.8833 36.8556 22.1012 36.8573 22.3284C36.8611 22.5543 36.7711 22.7716 36.6086 22.9286Z" fill="#BC0022"/>
</svg>
