<svg width="23" height="19" viewBox="0 0 23 19" fill="none" xmlns="http://www.w3.org/2000/svg">
<path d="M7.31818 14.5969L1.82955 9.10826L0 10.9378L7.31818 18.256L23 2.57417L21.1705 0.744629L7.31818 14.5969Z" fill="white"/>
</svg>
