<svg width="20" height="20" viewBox="0 0 20 20" fill="none" xmlns="http://www.w3.org/2000/svg">
<path d="M0 3.78088V16.5126L5.76918 8.96838L0 3.78088Z" fill="#BC0022"/>
<path d="M14.231 8.96772L20.0001 16.5127V3.78108L14.231 8.96772Z" fill="#BC0022"/>
<path d="M10.9817 9.64833L18.9325 2.5H1.06836L9.01504 9.64501C9.57836 10.1567 10.4225 10.1567 10.9817 9.64833Z" fill="#BC0022"/>
<path d="M12.0991 10.8844C11.5024 11.4277 10.7524 11.6994 10.0016 11.6994C9.2499 11.6994 8.4974 11.4269 7.8974 10.8811L7.01322 10.0861L1.34326 17.5002H18.6574L12.9874 10.086L12.0991 10.8844Z" fill="#BC0022"/>
</svg>
