<svg width="50" height="50" viewBox="0 0 50 50" fill="none" xmlns="http://www.w3.org/2000/svg">
<rect width="50" height="50" fill="#BC0022"/>
<path d="M19.4209 12L18 13.4034L30.1674 25.5L18 37.5966L19.4209 39L33 25.5L19.4209 12Z" fill="white"/>
</svg>
