<svg width="56" height="56" viewBox="0 0 56 56" fill="none" xmlns="http://www.w3.org/2000/svg">
<g clip-path="url(#clip0)">
<path d="M13.5333 14.2333C11.6666 12.3666 3.7333 11.9 1.16659 11.6666C0.933297 11.6666 0.699891 11.6666 0.466594 11.8999C0.233297 12.1333 0 12.6 0 12.8333V33.8333C0 34.5333 0.466703 35 1.1667 35H8.1667C8.63341 35 9.1 34.7667 9.33341 34.3C9.33341 33.6 13.5334 21.2333 14.0001 15.1667C14 14.9333 14 14.4667 13.5333 14.2333Z" fill="#BC0022"/>
<path d="M38.5001 19.8333C36.1668 19.1333 34.0668 18.2 32.2001 17.5C28.0001 15.6333 26.1334 16.5667 22.4001 20.3C20.7668 21.9333 19.6001 24.2667 19.8334 25.2C19.8334 25.4333 19.8334 25.4333 20.3001 25.6667C21.4668 26.1334 23.1001 26.3667 24.7334 23.8C24.9667 23.5667 25.2001 23.3333 25.6667 23.3333C26.3667 23.3333 26.6 23.1 27.3 22.8666C27.7667 22.6333 28.2333 22.3999 28.9333 22.1666C29.1666 22.1666 29.1666 22.1666 29.4 22.1666C29.6333 22.1666 30.1 22.3999 30.3333 22.3999C31.5001 23.5667 33.6001 25.2 35.7001 27.0667C38.9668 29.6334 42.2334 32.4334 43.8668 34.5334H44.1001C42.4668 29.8667 39.6668 21.9333 38.5001 19.8333Z" fill="#BC0022"/>
<path d="M54.8332 14C45.7332 14 40.5999 16.3333 40.3665 16.3333C40.1332 16.5666 39.8998 16.8 39.6665 17.0333C39.6665 17.2666 39.6665 17.7333 39.8998 17.9666C41.2998 20.2999 45.9665 33.1333 46.6665 36.3999C46.8998 36.8666 47.3665 37.3332 47.8332 37.3332H54.8332C55.5332 37.3332 55.9999 36.8665 55.9999 36.1665V15.1665C55.9999 14.4667 55.5332 14 54.8332 14Z" fill="#BC0022"/>
<path d="M42.2337 36.8668C41.3004 34.7668 37.3337 31.7335 33.8337 28.9335C31.9671 27.3 30.1004 25.9 28.7004 24.7333C28.4671 24.9666 28.0004 24.9666 28.0004 25.2C27.3004 25.4333 27.0671 25.6668 26.1337 25.6668C24.2671 28 21.9337 28.9333 19.3671 28C18.2004 27.7668 17.5004 26.8333 17.2671 25.9C16.8004 23.5667 18.9004 20.3 20.5338 18.6667H15.8671C14.9338 23.3335 13.3004 29.4 12.1338 32.6668C13.0671 33.6 14.0005 34.7668 14.7005 35.2335C19.1338 38.9668 24.2672 42.7002 25.2005 43.4002C25.9005 43.8669 27.3005 44.3335 28.0005 44.3335C28.2338 44.3335 28.4672 44.3335 28.7005 44.3335L24.9671 40.6001C24.5004 40.1334 24.5004 39.4333 24.9671 38.9668C25.4338 38.5002 26.1338 38.5001 26.6004 38.9668L31.2671 43.6335C31.7338 44.1002 32.2004 43.8668 32.6671 43.8668C33.3671 43.6335 33.6004 43.1668 33.8338 42.4668L28.4671 37.1001C28.0004 36.6334 28.0004 35.9333 28.4671 35.4668C28.9338 35.0002 29.6338 35.0001 30.1004 35.4668L35.9337 41.3001C36.167 41.5334 37.1004 41.5334 37.8004 41.3001C38.0337 41.0668 38.5004 40.8333 38.7337 40.3668L32.2004 33.8333C31.7337 33.3666 31.7337 32.6666 32.2004 32.2C32.6671 31.7335 33.3671 31.7333 33.8337 32.2L40.6004 38.9668C41.0671 39.2001 41.5337 38.9668 42.0004 38.7335C42.2337 38.5001 42.7004 37.8001 42.2337 36.8668Z" fill="#BC0022"/>
</g>
<defs>
<clipPath id="clip0">
<rect width="56" height="56" fill="white"/>
</clipPath>
</defs>
</svg>
