<svg width="54" height="54" viewBox="0 0 54 54" fill="none" xmlns="http://www.w3.org/2000/svg">
<path d="M32.0254 39.7386C30.6507 38.3749 28.9323 38.386 27.5687 39.7386C26.5266 40.7696 25.4844 41.8006 24.4534 42.8649C24.1763 43.1532 23.9434 43.2086 23.5887 43.0201C22.9124 42.6543 22.2029 42.355 21.5488 41.9558C18.5222 40.0601 15.9945 37.61 13.7551 34.8606C12.6353 33.4858 11.6486 32.0335 10.9613 30.3817C10.8172 30.0491 10.8393 29.8273 11.1165 29.5613C12.1586 28.5524 13.1786 27.5214 14.1985 26.4903C15.6287 25.0602 15.6176 23.3751 14.1874 21.9228C13.3781 21.1024 12.5577 20.2931 11.7373 19.4727C10.8948 18.6301 10.0633 17.7875 9.20963 16.9561C7.83492 15.6035 6.11653 15.6035 4.75291 16.9561C3.71079 17.9871 2.69084 19.0514 1.62655 20.0602C0.63986 21.0026 0.129887 22.1445 0.0301091 23.4859C-0.136187 25.6589 0.407046 27.7209 1.14983 29.7276C2.69084 33.885 5.04115 37.5656 7.87927 40.947C11.7262 45.5257 16.316 49.1398 21.6818 51.7451C24.0986 52.9203 26.6042 53.8183 29.3314 53.9735C31.205 54.0733 32.8347 53.6076 34.1429 52.1442C35.0409 51.1465 36.0387 50.2374 36.9921 49.2729C38.4001 47.8538 38.4112 46.1354 37.0143 44.7385C35.3735 43.0756 33.6995 41.4015 32.0254 39.7386Z" fill="#BC0022"/>
<path d="M49.021 4.99399C42.3803 -1.64676 31.6154 -1.64676 24.9746 4.99399C18.5778 11.3908 18.345 21.6014 24.254 28.2754L24.4314 28.4195C23.7884 29.8053 22.6797 31.5126 20.9281 32.3774C20.3516 32.6656 20.4846 33.5193 21.1166 33.619C23.0345 33.9184 25.7618 33.5969 28.3227 31.6678L28.3781 31.6789C34.8969 35.5148 43.4113 34.6279 49.0099 29.0404C55.6618 22.3885 55.6618 11.6236 49.021 4.99399ZM37.724 6.51282C39.2539 6.52391 40.4734 7.76558 40.4623 9.31768C40.4512 10.8476 39.2096 12.1004 37.7129 12.0893C36.1719 12.0782 34.9191 10.8143 34.9413 9.27333C34.9413 7.73232 36.1941 6.50173 37.724 6.51282ZM41.6596 25.1934C41.6042 25.4373 41.449 25.6812 41.2716 25.8586C40.2628 26.8785 39.0654 27.4883 37.6131 27.5104C36.9368 27.5215 36.2606 27.4993 35.5954 27.3996C34.4867 27.2444 33.0788 25.8696 33.2783 24.4062C33.4114 23.4085 33.5666 22.4107 33.7329 21.4129C34.0211 19.6834 34.3426 17.954 34.642 16.2245C34.6641 16.1136 34.6641 16.0028 34.6641 15.8919C34.6641 15.1713 34.4313 14.9163 33.7218 14.8165C33.4114 14.7722 33.1009 14.75 32.8127 14.6502C32.4579 14.5172 32.2916 14.24 32.3249 13.9629C32.3582 13.6635 32.5466 13.464 32.9457 13.3975C33.1564 13.3531 33.367 13.3531 33.5777 13.3531C34.4313 13.3531 35.2739 13.3531 36.1275 13.3531C37.0255 13.3531 37.9235 13.3531 38.8326 13.3531C39.4756 13.3531 39.8637 13.6635 39.8858 14.3066C39.8969 14.8387 39.8082 15.3819 39.7084 15.9141C39.3537 17.8985 38.9878 19.8719 38.622 21.8453C38.5 22.4994 38.367 23.1535 38.2894 23.8187C38.2561 24.1291 38.3005 24.4728 38.3781 24.7721C38.4889 25.1823 38.7883 25.4151 39.2096 25.3708C39.5643 25.3264 39.908 25.2045 40.2406 25.0825C40.5067 24.9827 40.7506 24.7943 41.0166 24.6834C41.4379 24.506 41.7705 24.7721 41.6596 25.1934Z" fill="#BC0022"/>
</svg>
